 
                                                                                                                                                                                                                                                                
 
 
Variable Importance

                     Number of    Number of
Variable             Splitting    Surrogate
  Name      Label      Rules        Rules      Importance

 HATCH                   6            5          1.00000 
 SEDAN                   2            6          0.88082 
 WAG0N                   4            2          0.83603 
