 
                                                                                                                                                                                                                                                                
 
 
Variable Summary

            Measurement    Frequency
Role           Level         Count

ID           INTERVAL          1    
INPUT        INTERVAL          5    
INPUT        NOMINAL           1    
REJECTED     INTERVAL          1    
 
                                                                                                                                                                                                                                                                
 
The CLUSTER Procedure
Ward's Minimum Variance Cluster Analysis

            Eigenvalues of the Covariance Matrix
 
        Eigenvalue    Difference    Proportion    Cumulative

   1    161728.193    111015.497        0.6428        0.6428
   2     50712.696     11548.172        0.2016        0.8443
   3     39164.524     39160.598        0.1557        1.0000
   4         3.926                      0.0000        1.0000

Root-Mean-Square Total-Sample Standard Deviation    254.4287

Root-Mean-Square Distance Between Observations     719.633


                                                 Cluster History
  Number
      of                                                 Semipartial                 Pseudo F       Pseudo
Clusters    ------Clusters Joined-------         Freq       R-Square    R-Square    Statistic    t-Squared    Tie

      49    OB2             OB24                    6         0.0002        .972          429          7.1       
      48    OB13            OB23                    3         0.0002        .971          436          7.7       
      47    OB10            OB29                    5         0.0003        .971          442          3.9       
      46    OB6             OB46                    4         0.0003        .971          447          4.8       
      45    OB32            OB34                   15         0.0004        .970          452          7.8       
      44    OB3             OB43                   15         0.0008        .970          451         15.5       
      43    OB12            OB42                    9         0.0008        .969          451         12.4       
      42    OB21            OB49                   18         0.0008        .968          450         15.1       
      41    OB14            OB47                   25         0.0009        .967          449         17.7       
      40    OB9             OB45                   28         0.0009        .966          449         17.9       
      39    OB19            OB36                   22         0.0009        .965          449         18.0       
      38    OB11            OB30                   17         0.0010        .964          449         32.2       
      37    OB38            OB40                   50         0.0011        .963          447         33.0       
      36    OB17            OB37                   20         0.0012        .962          446         25.4       
      35    OB1             CL48                    9         0.0012        .961          445         13.4       
      34    OB48            OB50                   24         0.0015        .959          442         25.4       
      33    OB8             OB20                   28         0.0015        .958          439         31.0       
      32    CL44            OB31                   28         0.0016        .956          437         18.1       
      31    OB33            OB39                   42         0.0016        .955          435         38.4       
      30    OB4             OB5                    34         0.0018        .953          434         30.5       
      29    OB16            OB41                   46         0.0018        .951          432         40.2       
      28    CL46            CL42                   22         0.0019        .949          432         17.4       
      27    OB7             OB18                   57         0.0022        .947          429         62.9       
      26    CL49            OB26                    9         0.0022        .945          428         40.0       
      25    CL41            OB35                   43         0.0023        .942          428         35.1       
      24    CL43            CL36                   29         0.0025        .940          428         20.4       
      23    CL30            CL39                   56         0.0027        .937          428         25.9       
      22    OB22            OB44                   55         0.0028        .934          428         53.4       
      21    CL27            OB27                   94         0.0031        .931          429         49.6       
      20    OB28            CL34                   26         0.0038        .928          427         33.1       
      19    CL33            CL25                   71         0.0039        .924          426         34.5       
      18    CL22            CL45                   70         0.0039        .920          429         40.1       
      17    CL40            OB15                   50         0.0043        .916          431         60.9       
      16    CL23            CL47                   61         0.0044        .911          436         29.9       
      15    CL31            CL37                   92         0.0056        .906          437         83.4       
      14    CL32            OB25                   57         0.0059        .900          441         63.3       
      13    CL28            CL17                   72         0.0092        .891          434         54.7       
      12    CL21            CL29                  140         0.0100        .881          430          108       
      11    CL35            CL19                   80         0.0102        .870          431         59.4       
      10    CL38            CL20                   43         0.0126        .858          431         65.1       
       9    CL11            CL24                  109         0.0198        .838          416         72.2       
       8    CL12            CL18                  210         0.0248        .813          401          156       
       7    CL14            CL8                   267         0.0270        .786          396          104       
       6    CL13            CL15                  164         0.0291        .757          403          145       
       5    CL26            CL10                   52         0.0544        .703          383          117       
       4    CL9             CL6                   273         0.0794        .623          358          194       
       3    CL7             CL16                  328         0.0900        .533          371          269       
       2    CL5             CL3                   380         0.1671        .366          376          228       
       1    CL4             CL2                   653         0.3661        .000           .           376       
 
                                                                                                                                                                                                                                                                
 
Candidates for Optimum Number of Clusters

        Number     Clustering
          of          Cubic
Obs    Clusters     Criterion

 1        45         25.0459 
