*------------------------------------------------------------*
User:                Ron
Date:                October 14, 2016
Time:                15:47:44
*------------------------------------------------------------*
* Training Output
*------------------------------------------------------------*
 
 
 
 
Variable Summary
 
          Measurement    Frequency
Role         Level         Count
 
ID         NOMINAL           1
INPUT      INTERVAL          2
TARGET     NOMINAL           1
TIMEID     INTERVAL          1
 
 
 
 
Output Table Attributes
 
Attribute            Value
 
Output Table         EMWS1.Ids2_DATA
Output Type          View
Dropped Variables    0
Data Mining Role     Transaction
 
 
 
 
Input Table Attributes
 
Attribute                                  Value
 
Data Source                                postransactions
 
Library Name                               MCS
Library Member Name                        POS_TRANSACTIONS
Data Set Label
Special Data Set Type (From TYPE=)
Observations in Data Set                   459258
Engine Name                                BASE
Create Date                                06Sep2013:15:03:39
Last Modified Date                         06Sep2013:15:03:39
Deleted Observations in Data Set           0
Use of Variable in Indexes                 NONE
Library Member Type                        DATA
Number of Indexes for Data Set             0
Password Protection (Read Write Alter)     ---
Update Flags (Protect Contribute Add)      ---
Compression Routine                        NO
Reuse Space                                NO
Sorted and/or Validated                    .
Position of Variable in Sortedby Clause    .
Host Character Set
Collating Sequence
Sort Option: No Duplicate Keys             NO
Sort Option: No Duplicate Records          NO
Encryption Routine                         NO
Point to Observations                      YES
Maximum Number of Generations              0
Generation Number                          .
Next Generation Number                     .
Character Variables Transcoded             YES
Variables                                  5


*------------------------------------------------------------*
* Score Output
*------------------------------------------------------------*


*------------------------------------------------------------*
* Report Output
*------------------------------------------------------------*
