*------------------------------------------------------------*
User:                Ron
Date:                October 14, 2016
Time:                15:10:26
*------------------------------------------------------------*
* Training Output
*------------------------------------------------------------*
 
 
 
 
Variable Summary
 
            Measurement    Frequency
Role           Level         Count
 
ID           INTERVAL          1
INPUT        INTERVAL          5
INPUT        NOMINAL           1
REJECTED     INTERVAL          2
REJECTED     NOMINAL           1
SEGMENT      NOMINAL           1
 
 
 
 
Frequencies: _SEGMENT_
 
                                     Percent of
 Segment     Segment    Frequency       Total
Variable      Value       Count       Frequency
 
_SEGMENT_    4                86       13.1700
_SEGMENT_    18               74       11.3323
_SEGMENT_    2                68       10.4135
_SEGMENT_    5                59        9.0352
_SEGMENT_    15               53        8.1164
_SEGMENT_    6                50        7.6570
_SEGMENT_    7                40        6.1256
_SEGMENT_    20               35        5.3599
_SEGMENT_    9                29        4.4410
_SEGMENT_    3                27        4.1348
_SEGMENT_    16               27        4.1348
_SEGMENT_    10               24        3.6753
_SEGMENT_    12               21        3.2159
_SEGMENT_    11               18        2.7565
_SEGMENT_    8                14        2.1440
_SEGMENT_    _OTHER_          28        4.2879
 
 
 
Variable: _SEGMENT_ Segment: 4 Count: 86
Decision Tree Importance Profiles
 
Variable      Worth     Rank
 
 HATCH      0.077214      1
 SEDAN      0.076003      2
 WAG0N      0.053261      3
 
 
 
Variable: _SEGMENT_ Segment: 18 Count: 74
Decision Tree Importance Profiles
 
Variable      Worth     Rank
 
 HATCH      0.058389      1
 WAG0N      0.049968      2
 SEDAN      0.045553      3
 
 
 
Variable: _SEGMENT_ Segment: 2 Count: 68
Decision Tree Importance Profiles
 
Variable      Worth     Rank
 
 SEDAN      0.056376      1
 HATCH      0.053203      2
 WAG0N      0.034604      3
 
 
 
Variable: _SEGMENT_ Segment: 5 Count: 59
Decision Tree Importance Profiles
 
Variable      Worth     Rank
 
 SEDAN      0.049850      1
 WAG0N      0.043448      2
 HATCH      0.035968      3
 
 
 
Variable: _SEGMENT_ Segment: 15 Count: 53
Decision Tree Importance Profiles
 
Variable      Worth     Rank
 
 WAG0N      0.063545      1
 HATCH      0.041573      2
 SEDAN      0.026079      3
 
 
 
Variable: _SEGMENT_ Segment: 6 Count: 50
Decision Tree Importance Profiles
 
Variable      Worth     Rank
 
 SEDAN      0.052054      1
 HATCH      0.049339      2
 WAG0N      0.024038      3
 
 
 
Variable: _SEGMENT_ Segment: 7 Count: 40
Decision Tree Importance Profiles
 
Variable      Worth     Rank
 
 HATCH      0.068561      1
 SEDAN      0.032279      2
 WAG0N      0.017858      3
 
 
 
Variable: _SEGMENT_ Segment: 20 Count: 35
Decision Tree Importance Profiles
 
Variable      Worth     Rank
 
 SEDAN      0.053894      1
 HATCH      0.015591      2
 WAG0N      0.006318      3
 
 
 
Variable: _SEGMENT_ Segment: 9 Count: 29
Decision Tree Importance Profiles
 
Variable      Worth     Rank
 
 WAG0N      0.021613      1
 SEDAN      0.012830      2
 HATCH      0.009723      3
 
 
 
Variable: _SEGMENT_ Segment: 3 Count: 27
Decision Tree Importance Profiles
 
Variable      Worth     Rank
 
 WAG0N      0.020109      1
 SEDAN      0.009729      2
 HATCH      0.007425      3
 
 
 
Variable: _SEGMENT_ Segment: 16 Count: 27
Decision Tree Importance Profiles
 
Variable      Worth     Rank
 
 HATCH      0.036339      1
 WAG0N      0.018218      2
 SEDAN      0.017338      3
 
 
 
Variable: _SEGMENT_ Segment: 10 Count: 24
Decision Tree Importance Profiles
 
Variable      Worth     Rank
 
 SEDAN      0.038022      1
 HATCH      0.037662      2
 WAG0N      0.004444      3
 
 
 
Variable: _SEGMENT_ Segment: 12 Count: 21
Decision Tree Importance Profiles
 
Variable      Worth     Rank
 
 WAG0N      0.031991      1
 SEDAN      0.013055      2
 HATCH      0.006329      3
 
 
 
Variable: _SEGMENT_ Segment: 11 Count: 18
Decision Tree Importance Profiles
 
Variable      Worth     Rank
 
 WAG0N      0.024726      1
 HATCH      0.008865      2
 SEDAN      0.003960      3
 
 
 
Variable: _SEGMENT_ Segment: 8 Count: 14
Decision Tree Importance Profiles
 
Variable      Worth     Rank
 
 SEDAN      0.033902      1
 HATCH      0.008899      2
 WAG0N      0.002839      3
 
 
 
Variable: _SEGMENT_ Segment: _OTHER_ Count: 28
Decision Tree Importance Profiles
 
Variable      Worth     Rank
 
 WAG0N      0.039457      1
 SEDAN      0.032509      2
 HATCH      0.032173      3


*------------------------------------------------------------*
* Score Output
*------------------------------------------------------------*


*------------------------------------------------------------*
* Report Output
*------------------------------------------------------------*
