

length _FILTERFMT1  $200;
drop _FILTERFMT1 ;
_FILTERFMT1= put(DEALER_CODE,$8.0);
length _FILTERNORM1  $32;
drop _FILTERNORM1 ;
%dmnormcp(_FILTERFMT1,_FILTERNORM1);
if
_FILTERNORM1 not in ( ' ')
and
( HATCH ne . and (1<=HATCH                           ))
and ( K__SALES_TOT ne . and (1<=K__SALES_TOT                    ))
and ( SEDAN ne . and (1<=SEDAN                           ))
and ( UTE ne . and (1<=UTE                             ))
and ( WAG0N ne . and (1<=WAG0N                           ))
then do;
if M_FILTER eq . then M_FILTER = 0;
else M_FILTER = M_FILTER + 0;
end;
else M_FILTER = 1;
label M_FILTER = 'Filtered Indicator';
